104.129.180.157
104.237.5.113
108.4.200.151
1.34.180.245
136.243.24.82
149.129.117.49
149.28.135.39
172.104.82.6
172.104.95.180
176.228.158.190
178.132.3.92
188.126.6.32
195.123.240.198
2001:19f0:8001:1a32:5400:1ff:fedf:59d3
2001:b011:7007:2cb0:49f:654c:3350:e120
207.180.222.97
212.200.52.123
213.133.110.186
217.108.209.165
23.94.189.31
23.95.227.232
2400:8902:0:0:f03c:91ff:fece:ccf5
2400:8902:0:0:f03c:91ff:feda:744e
2600:3c01:0:0:f03c:91ff:feba:cce2
2600:3c03:0:0:f03c:91ff:fedf:111b
2607:f7a0:3:4:acdc:c0fe:0:21c
2a00:d880:5:513:0:0:0:ce39
2a01:e35:87e7:a4e0:1557:7b92:17bc:72cc
2a01:e35:87e7:a4e0:3d9c:2389:9ecf:3f73
2a01:e35:87e7:a4e0:451c:5045:2046:becb
2a01:e35:87e7:a4e0:5c56:ed00:700:5d4
2a01:e35:87e7:a4e0:9d4c:7130:4e36:7d5f
2a01:e35:87e7:a4e0:a53c:c842:ee6c:22c4
2a01:e35:87e7:a4e0:c146:48c0:152a:6eda
2a02:c207:2021:5066:0:0:0:1
2a02:c207:2022:1374:0:0:0:1
34.80.32.129
45.32.254.137
45.79.88.52
47.244.43.72
47.88.230.165
50.116.55.60
5.189.152.114
66.42.71.70
71.244.137.193
72.39.37.164
73.169.246.222
73.53.78.243
81.4.120.193
88.126.122.78
91.194.120.162
97.113.147.66
ckw3s72yticvw7wr.onion
kzuaopyzujrohd5j.onion
lt74oayqkbji7sl7.onion
ncdgv6qnf6owissp.onion
owxngambjc3ccuoa.onion
oy5gwk253s4a6c64.onion
xxxhgyarqfuampxe.onion
yp34agdvybycqdzb.onion
